%YAML 1.1
%TAG !u! tag:unity3d.com,2011:
--- !u!114 &11400000
MonoBehaviour:
  m_ObjectHideFlags: 0
  m_CorrespondingSourceObject: {fileID: 0}
  m_PrefabInstance: {fileID: 0}
  m_PrefabAsset: {fileID: 0}
  m_GameObject: {fileID: 0}
  m_Enabled: 1
  m_EditorHideFlags: 0
  m_Script: {fileID: 11500000, guid: c5eb384950c07b6499c766a6cdff3aa6, type: 3}
  m_Name: New Enemy
  m_EditorClassIdentifier: 
  ObjectName: 
  ItemPrefeb: {fileID: 0}
  type: 4
  ItemType: 0
  InteractType: 0
  Description: 
  Health: 0
  IsDead: 0
